[{
  "_id": {
    "$oid": "64307d8e4f25d5469b6a1cb5"
  },
  "sort": 1000,
  "key": "Lasercutter",
  "name": "Lasercutter",
  "price": 10,
  "unit": "pro 30 Min.",
  "type": "Maschine",
  "konto": "3000 Betriebsertrag",
  "units": 1
},
{
  "_id": {
    "$oid": "64307d8e4f25d5469b6a1cb6"
  },
  "sort": 2000,
  "key": "CNC",
  "name": "CNC",
  "price": 10,
  "unit": "pro 30 Min.",
  "type": "Maschine",
  "konto": "3000 Betriebsertrag",
  "units": 1
},
{
  "_id": {
    "$oid": "64307d8e4f25d5469b6a1cb7"
  },
  "sort": 3000,
  "key": "3D Printer FDM",
  "name": "3D Printer FDM",
  "price": 3,
  "unit": "pro 30 Min.",
  "type": "Maschine",
  "konto": "3000 Betriebsertrag",
  "units": 1
},
{
  "_id": {
    "$oid": "64307d8e4f25d5469b6a1cb8"
  },
  "sort": 4000,
  "key": "3D Printer SLA",
  "name": "3D Printer SLA",
  "price": 4,
  "unit": "pro 30 Min.",
  "type": "Maschine",
  "konto": "3000 Betriebsertrag",
  "units": 1
},
{
  "_id": {
    "$oid": "64307d8e4f25d5469b6a1cb9"
  },
  "sort": 5000,
  "key": "Shaper Origin CNC Router",
  "name": "Shaper Origin CNC Router",
  "price": 4,
  "unit": "pro 30 Min.",
  "type": "Maschine",
  "konto": "3000 Betriebsertrag",
  "units": 1
},
{
  "_id": {
    "$oid": "64307d8e4f25d5469b6a1cba"
  },
  "sort": 6000,
  "key": "Folien-Cutter",
  "name": "Folien-Cutter",
  "price": 4,
  "unit": "pro 30 Min.",
  "type": "Maschine",
  "konto": "3000 Betriebsertrag",
  "units": 1
},
{
  "_id": {
    "$oid": "64307d8e4f25d5469b6a1cbb"
  },
  "sort": 7000,
  "key": "Strickmaschine",
  "name": "Strickmaschine",
  "price": 5,
  "unit": "pro Tag",
  "type": "Maschine",
  "konto": "3000 Betriebsertrag",
  "units": 1
},
{
  "_id": {
    "$oid": "64307d8e4f25d5469b6a1cbc"
  },
  "sort": 8000,
  "key": "Brennofen",
  "name": "Brennofen",
  "price": 25,
  "unit": "pro Brand",
  "type": "Maschine",
  "konto": "3000 Betriebsertrag",
  "units": 1
},
{
  "_id": {
    "$oid": "64307d8e4f25d5469b6a1cbd"
  },
  "sort": 9000,
  "key": "Material",
  "name": "Material",
  "price": 0,
  "unit": "Stück",
  "type": "Material",
  "konto": "3210 Ertrag Materialverkauf",
  "units": 1
},
{
  "_id": {
    "$oid": "64307d8e4f25d5469b6a1cbe"
  },
  "sort": 10000,
  "key": "Mitgliederbeitrag",
  "name": "Mitgliederbeitrag",
  "price": 156,
  "unit": "pro Jahr",
  "type": "Mitgliedschaft",
  "konto": "3401 Mitgliederbeiträge",
  "units": 1,
  "descriptionRule": {
    "label": "Vorname Nachname (E-Mail)",
    "placeholder": "Name und E-Mail",
    "requiredMsg": "Bitte Name und E-Mail eintragen 🚀",
    "regex": "^([A-Za-zÄÖÜäöüßÀ-ÿ-]+(?:\\s[A-Za-zÄÖÜäöüßÀ-ÿ-]+)*)\\s\\(([a-zA-Z0-9._%+-]+@[a-zA-Z0-9.-]+\\.[a-zA-Z]{2,})\\)$"
  }
},
{
  "_id": {
    "$oid": "64307d8e4f25d5469b6a1cbf"
  },
  "sort": 11000,
  "key": "MitgliederbeitragLegi",
  "name": "Mitgliederbeitrag Legi",
  "price": 78,
  "unit": "pro Jahr",
  "type": "Mitgliedschaft",
  "konto": "3401 Mitgliederbeiträge",
  "units": 1,
  "descriptionRule": {
    "label": "Vorname Nachname (E-Mail)",
    "placeholder": "Name und E-Mail",
    "requiredMsg": "Bitte Name und E-Mail eintragen 🚀",
    "regex": "^([A-Za-zÄÖÜäöüßÀ-ÿ-]+(?:\\s[A-Za-zÄÖÜäöüßÀ-ÿ-]+)*)\\s\\(([a-zA-Z0-9._%+-]+@[a-zA-Z0-9.-]+\\.[a-zA-Z]{2,})\\)$"
  }
},
{
  "_id": {
    "$oid": "64307d8e4f25d5469b6a1cc0"
  },
  "sort": 12000,
  "key": "Workshop",
  "name": "Workshop",
  "price": 0,
  "unit": "",
  "type": "Workshop",
  "konto": "3402 Ertrag Kurse",
  "units": 1
},
{
  "_id": {
    "$oid": "64307d8e4f25d5469b6a1cc1"
  },
  "sort": 13000,
  "key": "WorkshopCNCBasicRinoCam",
  "name": "Fräskurs CNC Basic RhinoCAM",
  "price": 180,
  "unit": "",
  "type": "Workshop",
  "konto": "3402 Ertrag Kurse",
  "units": 1
},
{
  "_id": {
    "$oid": "64307d8e4f25d5469b6a1cc2"
  },
  "sort": 14000,
  "key": "WorkshopCNCBasicFusionCAM",
  "name": "Fräskurs CNC Basic FusionCAM",
  "price": 180,
  "unit": "",
  "type": "Workshop",
  "konto": "3402 Ertrag Kurse",
  "units": 1
},
{
  "_id": {
    "$oid": "64307d8e4f25d5469b6a1cc3"
  },
  "sort": 15000,
  "key": "WorkshopKnittingBasic",
  "name": "Machine Knitting Kurs: basics",
  "price": 140,
  "unit": "",
  "type": "Workshop",
  "konto": "3402 Ertrag Kurse",
  "units": 1
},
{
  "_id": {
    "$oid": "64307d8e4f25d5469b6a1cc4"
  },
  "sort": 16000,
  "key": "WorkshopPorzellanGiessen",
  "name": "Porzellan giessen",
  "price": 190,
  "unit": "",
  "type": "Workshop",
  "konto": "3402 Ertrag Kurse",
  "units": 1
},
{
  "_id": {
    "$oid": "64307d8e4f25d5469b6a1cc5"
  },
  "sort": 17000,
  "key": "WorkshopKintsugi",
  "name": "Kintsugi",
  "price": 45,
  "unit": "",
  "type": "Workshop",
  "konto": "3402 Ertrag Kurse",
  "units": 1
},
{
  "_id": {
    "$oid": "64307d8e4f25d5469b6a1cc6"
  },
  "sort": 18000,
  "key": "GetränkeKaffee",
  "name": "Kaffee",
  "price": 2,
  "unit": "Tasse",
  "type": "Getränke",
  "konto": "3000 Ertrag Getränke",
  "units": 1
},
{
  "_id": {
    "$oid": "64307d8e4f25d5469b6a1cc7"
  },
  "sort": 19000,
  "key": "GetränkeKaltgetränke",
  "name": "Kaltgetränk",
  "price": 3,
  "unit": "Flasche",
  "type": "Getränke",
  "konto": "3000 Ertrag Getränke",
  "units": 1
},
{
  "_id": {
    "$oid": "64307d8e4f25d5469b6a1cc8"
  },
  "sort": 20000,
  "key": "GetränkeSonstige",
  "name": "Sonstige Getränke",
  "price": 1,
  "unit": "",
  "type": "Getränke",
  "konto": "3000 Ertrag Getränke",
  "units": 1
},
{
  "_id": {
    "$oid": "64307d8e4f25d5469b6a1cc9"
  },
  "sort": 21000,
  "key": "Spenden",
  "name": "Spende",
  "price": 10,
  "unit": "",
  "type": "Sonstiges",
  "konto": "3000 Ertrag Spenden",
  "units": 1
},
{
  "_id": {
    "$oid": "64307d8e4f25d5469b6a1cca"
  },
  "sort": 22000,
  "key": "ExpenseGetränkeKaffe",
  "name": "Getränke/Kaffee",
  "price": 0,
  "unit": "",
  "type": "Ausgaben",
  "konto": "4000 ExpenseGetränkeKaffe",
  "units": 1
},
{
  "_id": {
    "$oid": "64307d8e4f25d5469b6a1ccb"
  },
  "sort": 23000,
  "key": "ExpenseEssenSnacks",
  "name": "Esswaren/Snacks ",
  "price": 0,
  "unit": "",
  "type": "Ausgaben",
  "konto": "4000 ExpenseEssenSnacks",
  "units": 1
},
{
  "_id": {
    "$oid": "64307d8e4f25d5469b6a1ccc"
  },
  "sort": 24000,
  "key": "ExpenseReinigungEntsorgen",
  "name": "Reinigungsmaterial/Entsorgung",
  "price": 0,
  "unit": "",
  "type": "Ausgaben",
  "konto": "4000 ExpenseReinigungEntsorgen",
  "units": 1
},
{
  "_id": {
    "$oid": "64307d8e4f25d5469b6a1ccd"
  },
  "sort": 25000,
  "key": "ExpenseBüromaterial",
  "name": "Büromaterial",
  "price": 0,
  "unit": "",
  "type": "Ausgaben",
  "konto": "4000 ExpenseBüromaterial",
  "units": 1
},
{
  "_id": {
    "$oid": "64307d8e4f25d5469b6a1cce"
  },
  "sort": 26000,
  "key": "ExpenseWerkzeugeBetriebsmaterial",
  "name": "Werkzeug/Betriebsmaterial ",
  "price": 0,
  "unit": "",
  "type": "Ausgaben",
  "konto": "4000 ExpenseWerkzeugeBetriebsmaterial",
  "units": 1
},
{
  "_id": {
    "$oid": "64307d8e4f25d5469b6a1ccf"
  },
  "sort": 27000,
  "key": "ExpenseUnterhaltErsatzteile",
  "name": "Unterhalt/Ersatzteile",
  "price": 0,
  "unit": "",
  "type": "Ausgaben",
  "konto": "4000 ExpenseUnterhaltErsatzteile",
  "units": 1
},
{
  "_id": {
    "$oid": "64307d8e4f25d5469b6a1cd0"
  },
  "sort": 28000,
  "key": "ExpenseAnderes",
  "name": "Anderes",
  "price": 0,
  "unit": "",
  "type": "Ausgaben",
  "konto": "4000 ExpenseAnderes",
  "units": 1
},
{
  "_id": {
    "$oid": "64307d8e4f25d5469b6a1cd1"
  },
  "sort": 29000,
  "key": "ExpenseWorkshopCNC",
  "name": "Workshop CNC Basic",
  "price": 0,
  "unit": "",
  "type": "Entschädigung",
  "konto": "4000 ExpenseWorkshopCNC",
  "units": 1,
  "descriptionRule": {
    "label": "Vorname Nachname (E-Mail)",
    "placeholder": "Dein Name und E-Mail",
    "requiredMsg": "Bitte Dein Name und E-Mail eintragen 🚀",
    "regex": "^([A-Za-zÄÖÜäöüßÀ-ÿ-]+(?:\\s[A-Za-zÄÖÜäöüßÀ-ÿ-]+)*)\\s\\(([a-zA-Z0-9._%+-]+@[a-zA-Z0-9.-]+\\.[a-zA-Z]{2,})\\)$"
  }
},
{
  "_id": {
    "$oid": "64307d8e4f25d5469b6a1cd2"
  },
  "sort": 30000,
  "key": "ExpenseWorkshopKnitting",
  "name": "Workshop Strickmaschine Basic",
  "price": 0,
  "unit": "",
  "type": "Entschädigung",
  "konto": "4000 ExpenseWorkshopKnitting",
  "units": 1,
  "descriptionRule": {
    "label": "Vorname Nachname (E-Mail)",
    "placeholder": "Dein Name und E-Mail",
    "requiredMsg": "Bitte Dein Name und E-Mail eintragen 🚀",
    "regex": "^([A-Za-zÄÖÜäöüßÀ-ÿ-]+(?:\\s[A-Za-zÄÖÜäöüßÀ-ÿ-]+)*)\\s\\(([a-zA-Z0-9._%+-]+@[a-zA-Z0-9.-]+\\.[a-zA-Z]{2,})\\)$"
  }
},
{
  "_id": {
    "$oid": "64307d8e4f25d5469b6a1cd3"
  },
  "sort": 31000,
  "key": "ExpenseWorkshopPorzelan",
  "name": "Workshop Porzelan",
  "price": 0,
  "unit": "",
  "type": "Entschädigung",
  "konto": "4000 ExpenseWorkshop",
  "units": 1,
  "descriptionRule": {
    "label": "Vorname Nachname (E-Mail)",
    "placeholder": "Dein Name und E-Mail",
    "requiredMsg": "Bitte Dein Name und E-Mail eintragen 🚀",
    "regex": "^([A-Za-zÄÖÜäöüßÀ-ÿ-]+(?:\\s[A-Za-zÄÖÜäöüßÀ-ÿ-]+)*)\\s\\(([a-zA-Z0-9._%+-]+@[a-zA-Z0-9.-]+\\.[a-zA-Z]{2,})\\)$"
  }
},
{
  "_id": {
    "$oid": "64307d8e4f25d5469b6a1cd4"
  },
  "sort": 32000,
  "key": "ExpenseWorkshopOthers",
  "name": "Workshop Sonstige",
  "price": 0,
  "unit": "",
  "type": "Entschädigung",
  "konto": "4000 ExpenseWorkshopOthers",
  "units": 1,
  "descriptionRule": {
    "label": "Workshopname / Vorname Nachname (E-Mail)",
    "placeholder": "Workshopname / Dein Name und E-Mail",
    "requiredMsg": "Bitte Workshopname / Dein Name und E-Mail eintragen 🚀",
    "regex": "^[\\w.+ -]+ / ([A-Za-zÄÖÜäöüßÀ-ÿ-]+(?:\\s[A-Za-zÄÖÜäöüßÀ-ÿ-]+)*)\\s\\(([a-zA-Z0-9._%+-]+@[a-zA-Z0-9.-]+\\.[a-zA-Z]{2,})\\)$"
  }
},
{
  "_id": {
    "$oid": "670e63e09464370eb333b2f9"
  },
  "sort": 40000,
  "key": "ExpenseÜbertragKasseBank",
  "name": "Übertrag Kasse an Bank",
  "price": 0,
  "unit": "",
  "type": "Übertrag",
  "konto": "4000 ExpenseÜbertragKasseBank",
  "units": 1
},
{
  "_id": {
    "$oid": "670e647b9464370eb333b2fa"
  },
  "sort": 21500,
  "key": "ÜbertragBankAnKasse",
  "name": "Übertrag Bank an Kasse",
  "price": 0,
  "unit": "",
  "type": "Übertrag",
  "konto": "3000 Übertrag Bank an Kasse",
  "units": 1
}]